Get EPCHC Data, Tidy it Up & Perform TBEP Annual WQ Assessment
…
Show All Code

Hide All Code

Get EPCHC Data, Tidy it Up & Perform TBEP Annual WQ Assessment

Ed Sherwood esherwood@tbep.org, Ben Best ben@ecoquants.com, Marcus Beck marcusb@sccwrp.org

2019-07-29 22:58

Original: esherwoo77/pull_epc_data:pull_epc_data.Rmd

Download and import EPCHC dataset

## # A tibble: 25,486 x 11
##    bay_segment epchc_station SampleTime             yr    mo Latitude
##    <chr>               <dbl> <dttm>              <dbl> <dbl>    <dbl>
##  1 HB                      6 2019-05-15 10:03:00  2019     5     27.9
##  2 HB                      7 2019-05-15 10:16:00  2019     5     27.9
##  3 HB                      8 2019-05-15 12:26:00  2019     5     27.9
##  4 MTB                     9 2019-05-15 11:51:00  2019     5     27.8
##  5 MTB                    11 2019-05-15 10:34:00  2019     5     27.8
##  6 MTB                    13 2019-05-15 10:45:00  2019     5     27.8
##  7 MTB                    14 2019-05-15 11:22:00  2019     5     27.8
##  8 MTB                    16 2019-05-21 11:42:00  2019     5     27.7
##  9 MTB                    19 2019-05-21 11:53:00  2019     5     27.7
## 10 LTB                    23 2019-05-21 14:16:00  2019     5     27.7
## #  with 25,476 more rows, and 5 more variables: Longitude <dbl>,
## #   Total_Depth_m <dbl>, Sample_Depth_m <dbl>, sd_m <dbl>, chla <dbl>
…
