…
```r
# load data and some light formatting
epcdata <- read_importwq(xlsx, download_latest_epchc = T)
```

```
## File is current...
```

```r
epcdata
```

```
## # A tibble: 25,441 x 11
##    bay_segment epchc_station SampleTime             yr    mo Latitude
##    <chr>               <dbl> <dttm>              <dbl> <dbl>    <dbl>
##  1 HB                      6 2019-04-10 10:26:00  2019     4     27.9
##  2 HB                      7 2019-04-10 10:39:00  2019     4     27.9
##  3 HB                      8 2019-04-10 13:15:00  2019     4     27.9
##  4 MTB                     9 2019-04-10 12:24:00  2019     4     27.8
##  5 MTB                    11 2019-04-10 10:54:00  2019     4     27.8
##  6 MTB                    13 2019-04-10 11:10:00  2019     4     27.8
##  7 MTB                    14 2019-04-10 11:54:00  2019     4     27.8
##  8 MTB                    16 2019-04-17 10:23:00  2019     4     27.7
##  9 MTB                    19 2019-04-17 10:36:00  2019     4     27.7
## 10 LTB                    23 2019-04-17 13:35:00  2019     4     27.7
## # ... with 25,431 more rows, and 5 more variables: Longitude <dbl>,
## #   Total_Depth_m <dbl>, Sample_Depth_m <dbl>, sd_m <dbl>, chla <dbl>
```
…
